{
    "questions": [{
        "id": 1,
        "text": "Tom How are you? <br />Steve __________ .",
        "correct": "a",
        "answers": {
            "a": "Fine, thanks",
            "b": "I'm Steve",
            "c": "Yes please",
            "d": ""
        }
    }, {
        "id": 2,
        "text": "Jane What are these? Liz __________ my business cards.",
        "correct": "a",
        "answers": {
            "a": "They're",
            "b": "This is",
            "c": "It's",
            "d": ""
        }
    }, {
        "id": 3,
        "text": "Are you married __________ single?",
        "correct": "b",
        "answers": {
            "a": " and ",
            "b": " or ",
            "c": " but ",
            "d": ""
        }
    }, {
        "id": 4,
        "text": " What's your email __________ ?",
        "correct": "a",
        "answers": {
            "a": " address ",
            "b": " name ",
            "c": " number ",
            "d": ""
        }
    }, {
        "id": 5,
      "text": " My sister __________ .",
        "correct": "a",
        "answers": {
            "a": " is ten ",
            "b": " is  ten   years ",
            "c": " has ten years. ",
            "d": ""
        }
    }, {
        "id": 6,
        "text": " This is my boyfriend. __________  French.",
        "correct": "a",
        "answers": {
            "a": " He's ",
            "b": " She's ",
            "c": "It's",
            "d": ""
        }
    }, {
        "id": 7,
        "text": " I'm __________ taxi-driver.",
        "correct": "c",
        "answers": {
            "a": " any ",
            "b": " an ",
            "c": " a ",
            "d": ""
        }
    }, {    
        "id": 8,
        "text": " My teacher's from Canada, and __________ name's Lisa.",
        "correct": "c",
        "answers": {
            "a": " your ",
            "b": " our ",
            "c": " her ",
            "d": ""
        }
    }, {
        "id": 9,
        "text": " Cambridge __________ a beautiful city.",
        "correct": "c",
        "answers": {
            "a": " be ",
            "b": " are ",
            "c": " is ",
            "d": ""
        }
    }, {
        "id": 10,
        "text": " John and Tom are __________ friends.",
        "correct": "b",
        "answers": {
            "a": " Peter ",
            "b": " Peter's ",
            "c": " of Peter ",
            "d": ""
        }
    }, {
        "id": 11,
        "text": " What's your __________ sport?",
        "correct": "b",
        "answers": {
            "a": " important ",
            "b": " favourite ",
            "c": " beautiful ",
            "d": ""
        }
    }, {
        "id": 12,
        "text": " Jim __________ got a car.",
        "correct": "a",
        "answers": {
            "a": " hasn't ",
            "b": " isn't ",
            "c": " haven't ",
            "d": ""
        }
    }, {
        "id": 13,
        "text": " excuse me. __________ got the time, please?",
        "correct": "c",
        "answers": {
            "a": " You         have ",
            "b": " Are you ",
            "c": " Have you ",
            "d": ""
        }
    }, {
        "id": 14,
        "text": " Joe:  When's  our  next  lesson? Steve: __________ Wednesday.",
        "correct": "b",
        "answers": {
            "a": " In ",
            "b": " On ",
            "c": " At ",
            "d": ""
        }
    }, {
        "id": 15,
        "text": " I can __________ Spanish.",
        "correct": "c",
        "answers": {
            "a": " speaking ",
            "b": " to speak ",
            "c": " speak ",
            "d": ""
        } 
    }, {
        "id": 16,
        "text": "Jane: Is there a bus stop near here? Sue: __________ .",
        "correct": "b",
        "answers": {
            "a": " Yes, there’s. ",
            "b": " Yes, there’s.",
            "c": " Yes, there are. ",
            "d": ""
        }
    }, {
        "id": 17,
        "text": " Anna __________ in a bank.",
        "correct": "b",
        "answers": {
            "a": " work ",
            "b": " works ",
            "c": " is work ",
            "d": " working "
        } 
    }, {
        "id": 18,
        "text": " Let’s __________ tennis today.",
        "correct": "a",
        "answers": {
            "a": " play ",
            "b": " to play ",
            "c": " playing ",
            "d": " plays "
        } 
    }, {
        "id": 19,
        "text": " What time __________   get up in the morning?",
        "correct": "b",
        "answers": {
            "a": " you ",
            "b": " do you ",
            "c": " are you ",
            "d": " you do"
        } 
    }, {
        "id": 20,
        "text": " mel loves snow but Tom doesn’t __________  it.",
        "correct": "b",
        "answers": {
            "a": " likes ",
            "b": " like ",
            "c": " liking ",
            "d": " to like"
        } 
    }, {
        "id": 21,
        "text": " Hi George!__________   a good weekend?",
        "correct": "a",
        "answers": {
            "a": " Did you have ",
            "b": " Have you got ",
            "c": " Had you got ",
            "d": " Do you have"
        } 
    }, {
        "id": 22,
        "text": "  __________  to go for a pizza this evening?",
        "correct": "d",
        "answers": {
            "a": " Do you like ",
            "b": " What do you want ",
            "c": " How about ",
            "d": " Would you like"
        }                                         
    }, {
        "id": 23,
        "text": "I __________   to italy for my holiday last year.",
        "correct": "a",
        "answers": {
            "a": " went",
            "b": " go",
            "c": "was",
            "d": " were"
        }
    }, {
        "id": 24,
        "text": "I __________   18 years old when i started my first job.",
        "correct": "c",
        "answers": {
            "a": " were ",
            "b": " had ",
            "c": " was ",
            "d": " did"
        }
    }, {
        "id": 25,
        "text": " i didn’t  __________   TV last night.",
        "correct": "c",
        "answers": {
            "a": " watched",
            "b": " watching ",
            "c": " watch ",
            "d": " not watched"
        }
    }, {
        "id": 26,
        "text": " my grandfather was born eighty years __________  .",
        "correct": "c",
        "answers": {
            "a": " since",
            "b": " last ",
            "c": "ago",
            "d": " when"
        }
    }, {
        "id": 27,
        "text": " Sorry, i haven’t got __________ coffee. is tea oK?",
        "correct": "b",
        "answers": {
            "a": " some ",
            "b": " any ",
            "c": " many ",
            "d": " a"
        }
    }, {    
        "id": 28,
        "text": " WaiTer: Anything else, sir? CuSTomer: __________  .",
        "correct": "a",
        "answers": {
            "a": " That’s all, thanks. ",
            "b": " Here you are. ",
            "c": " No, it isn’t. ",
            "d": " You’re welcome."
        }
    }, {
        "id": 29,
        "text": " __________ is this T-shirt?",
        "correct": "b",
        "answers": {
            "a": " How many ",
            "b": " How much ",
            "c": " How price ",
            "d": ""
        }
    }, {
        "id": 30,
        "text": " There aren’t __________    new houses in that street.",
        "correct": "a",
        "answers": {
            "a": " many ",
            "b": " much ",
            "c": " some ",
            "d": " a lot"
        }
    }, {
        "id": 31,
        "text": " Hello, __________  i speak to Jane, please?",
        "correct": "c",
        "answers": {
            "a": " do ",
            "b": " will ",
            "c": " can ",
            "d": " am"
        }
    }, {
        "id": 32,
        "text": " Look! it __________    .",
        "correct": "d",
        "answers": {
            "a": " rains ",
            "b": " raining ",
            "c": " does rain ",
            "d": " is raining"
        }
    }, {
        "id": 33,
        "text": " London is __________   expensive than new York.",
        "correct": "a",
        "answers": {
            "a": " more ",
            "b": " very ",
            "c": " too ",
            "d": " quite"
        }
    }, {
        "id": 34,
        "text": " alex loves giving presents. He’s very __________   .",
        "correct": "d",
        "answers": {
            "a": " selfish ",
            "b": " shy ",
            "c": " lazy ",
            "d": " generous"
        }
    }, {
        "id": 35,
        "text": " What’s __________  ? You look upset.",
        "correct": "b",
        "answers": {
            "a": " bad ",
            "b": " wrong ",
            "c": " happen ",
            "d": " matter"
        } 
    }, {
        "id": 36,
        "text": " What __________   the food like at the party last night?",
        "correct": "c",
        "answers": {
            "a": " did ",
            "b": " had ",
            "c": "was",
            "d": " were"
        }
    }, {
        "id": 37,
        "text": " if you want to get fit, you __________ do more sport.",
        "correct": "c",
        "answers": {
            "a": " will ",
            "b": " would ",
            "c": " should ",
            "d": " have"
        }
    }, {    
        "id": 38,
        "text": " Jeff and Nancy __________  to watch a film tonight.",
        "correct": "a",
        "answers": {
            "a": " are going ",
            "b": " is going ",
            "c": " going ",
            "d": ""
        }
    }, {
        "id": 39,
        "text": " Have you ever __________   to Australia?",
        "correct": "a",
        "answers": {
            "a": " been ",
            "b": " go ",
            "c": " be ",
            "d": "went"
        }
    }, {
        "id": 40,
        "text": " John __________    his wife in 2009.",
        "correct": "b",
        "answers": {
            "a": " has met ",
            "b": " met ",
            "c": " did he meet ",
            "d": "was met"
        }
    }, {
        "id": 41,
        "text": " Jane is the __________ girl in her class.",
        "correct": "d",
        "answers": {
            "a": " richer ",
            "b": " more popular ",
            "c": " worse ",
            "d": "happiest"
        }
    }, {
        "id": 42,
        "text": " it was nice to meet you. See you __________    , i hope.",
        "correct": "a",
        "answers": {
            "a": " later ",
            "b": " more ",
            "c": " always ",
            "d": "longer"
        }
    }, {
        "id": 43,
        "text": " i’m __________ sorry, but i can’t come to your party tonight.",
        "correct": "c",
        "answers": {
            "a": " much ",
            "b": " awful",
            "c": " really ",
            "d": "such"
        }
    }, {
        "id": 44,
        "text": " i enjoy __________  because i like laughing.",
        "correct": "b",
        "answers": {
            "a": " love stories ",
            "b": " comedies ",
            "c": " action films ",
            "d": "science fiction films"
        }
    }, {
        "id": 45,
        "text": " i’m sure __________  a great time at the party next Saturday.",
        "correct": "a",
        "answers": {
            "a": " we’ll have ",
            "b": " we’re having ",
            "c": " we have ",
            "d": "we go to have"
        } 
    }, {
        "id": 46,
        "text": " are you going shopping?__________  with you if you like.",
        "correct": "a",
        "answers": {
            "a": " I’ll come ",
            "b": " I come ",
            "c": "I’m coming",
            "d": "I can be coming"
        }
    }, {
        "id": 47,
        "text": " __________ anything next Friday?",
        "correct": "d",
        "answers": {
            "a": " Do you ",
            "b": " Do you do ",
            "c": " Did you ",
            "d": "Are you doing"
        }
    }, {    
        "id": 48,
        "text": " excuse me, I __________ if you could show me the way to the train station?",
        "correct": "b",
        "answers": {
            "a": " would like ",
            "b": " wonder ",
            "c": " may ask ",
            "d": "hope"
        }
    }, {
        "id": 49,
        "text": " How much time do you __________  doing your english homework?",
        "correct": "d",
        "answers": {
            "a": " work ",
            "b": " give ",
            "c": " make ",
            "d": "spend"
        }
    }, {
        "id": 50,
        "text": " In England people usually __________  hands when they first meet.",
        "correct": "b",
        "answers": {
            "a": " give ",
            "b": " shake ",
            "c": " take ",
            "d": "put"
        } 
    }, {
        "id": 51,
        "text": " Hurry up or we’ll __________ our train!",
        "correct": "d",
        "answers": {
            "a": " lose ",
            "b": " fail ",
            "c": " catch ",
            "d": "miss"
        }
    }, {
        "id": 52,
        "text": " I was so  __________ yesterday because I fell asleep in class!",
        "correct": "d",
        "answers": {
            "a": " calm't ",
            "b": " nervous ",
            "c": " happy ",
            "d": "embarrassed"
        }
    }, {
        "id": 53,
        "text": " Many types of watches __________ in Switzerland.",
        "correct": "a",
        "answers": {
            "a": " are made",
            "b": " made ",
            "c": " are making ",
            "d": "is made"
        }
    }, {
        "id": 54,
        "text": " Susan: I ’ve got four sisters. Ruth: __________ you?",
        "correct": "d",
        "answers": {
            "a": " Do ",
            "b": " Got ",
            "c": " Are ",
            "d": "Have"
        }
    }, {
        "id": 55,
        "text": " What would you __________ do if you a million pounds?",
        "correct": "c",
        "answers": {
            "a": " win ",
            "b": " would win ",
            "c": " won ",
            "d": "winning"
        } 
    }, {
        "id": 56,
        "text": "I’m trying to __________ money to buy a new car.",
        "correct": "a",
        "answers": {
            "a": " save ",
            "b": " waste",
            "c": " spend ",
            "d": "lend"
        }
    }, {
        "id": 57,
        "text": " You’re from Liverpool, __________ ?",
        "correct": "a",
        "answers": {
            "a": " aren’t you ",
            "b": " isn’t it ",
            "c": " don’t you ",
            "d": " you are "
        } 
    }, {
        "id": 58,
        "text": " You __________ to study hard if you want to pass your exams.",
        "correct": "c",
        "answers": {
            "a": " must ",
            "b": " should ",
            "c": " have ",
            "d": " supposed "
        } 
    }, {
        "id": 59,
        "text": " I’m usually too __________ after work to go out.",
        "correct": "b",
        "answers": {
            "a": " furious ",
            "b": " exhausted ",
            "c": " fascinated ",
            "d": " angry"
        } 
    }, {
        "id": 60,
        "text": " My parents __________ married since 1975.",
        "correct": "a",
        "answers": {
            "a": " have been ",
            "b": " are ",
            "c": " were ",
            "d": " got"
        } 
    }, {
        "id": 61,
        "text": " If you go to London, the Tate Modern is really worth __________ .",
        "correct": "b",
        "answers": {
            "a": " to see ",
            "b": " seeing ",
            "c": " to be seen",
            "d": " see"
        } 
    }, {
        "id": 62,
        "text": " I __________ home yesterday when it started raining.",
        "correct": "b",
        "answers": {
            "a": " walk ",
            "b": " was walking ",
            "c": " have walked ",
            "d": " have been walking"
        }                                         
    }, {
        "id": 63,
        "text": "People say English people tend __________ rather reserved.",
        "correct": "c",
        "answers": {
            "a": " being",
            "b": " be",
            "c": "to be",
            "d": " be"
        }
    }, {
        "id": 64,
        "text": "Could you __________ me a favour please?",
        "correct": "a",
        "answers": {
            "a": " do ",
            "b": " make ",
            "c": " give ",
            "d": " help"
        }
    }, {
        "id": 65,
        "text": "Take your umbrella __________ it rains.",
        "correct": "d",
        "answers": {
            "a": " unless",
            "b": " because ",
            "c": "as",
            "d": " in case"
        }
    }, {
        "id": 66,
        "text": " Many new houses __________ in the town where I live.",
        "correct": "c",
        "answers": {
            "a": " build",
            "b": " have been building ",
            "c": "are being built",
            "d": " are building"
        }
    }, {
        "id": 67,
        "text": " __________ to post that card to Pete – it’s his birthday tomorrow.",
        "correct": "c",
        "answers": {
            "a": " If I were you, I’d ",
            "b": " You should ",
            "c": " Don’t forget ",
            "d": " You’d better"
        }
    }, {    
        "id": 68,
        "text": " I don’t know many people __________ still smoke nowadays.",
        "correct": "d",
        "answers": {
            "a": " they ",
            "b": " what ",
            "c": " which ",
            "d": " who"
        }
    }, {
        "id": 69,
        "text": " Mary went to the party __________ of her headache.",
        "correct": "b",
        "answers": {
            "a": " although ",
            "b": " in spite ",
            "c": " even though ",
            "d": "despite"
        }
    }, {
        "id": 70,
        "text": " I think I’ve got a cold. I can’t stop __________ .",
        "correct": "b",
        "answers": {
            "a": " to sneeze ",
            "b": " sneezing ",
            "c": " sneeze ",
            "d": " the sneezing"
        }
    }, {
        "id": 71,
        "text": " If you don’t know the meaning of a word, you can __________ in a dictionary.",
        "correct": "c",
        "answers": {
            "a": " get it out ",
            "b": " poInt it out ",
            "c": " look it up ",
            "d": " come up with it"
        }
    }, {
        "id": 72,
        "text": " __________ I opened the window?",
        "correct": "b",
        "answers": {
            "a": " May ",
            "b": " Would you mind if ",
            "c": " Could ",
            "d": " Do you mind"
        }
    }, {
        "id": 73,
        "text": " My doctor __________ me I should eat less meat.",
        "correct": "a",
        "answers": {
            "a": " told ",
            "b": " spoke to ",
            "c": " said ",
            "d": " told to"
        }
    }, {
        "id": 74,
        "text": " William __________ me to go to the theatre with him next week.",
        "correct": "b",
        "answers": {
            "a": " offered ",
            "b": " invited ",
            "c": " promised ",
            "d": " suggested"
        }
    }, {
        "id": 75,
        "text": " Sorry, I didn’t quite __________ what you said.",
        "correct": "a",
        "answers": {
            "a": " catch ",
            "b": " listen ",
            "c": " take ",
            "d": " know"
        } 
    }, {
        "id": 76,
        "text": " I wish I __________ get up early every morning!",
        "correct": "a",
        "answers": {
            "a": " didn’t have to ",
            "b": " mustn’t ",
            "c": "hadn’t",
            "d": " wouldn’t have to"
        }
    }, {
        "id": 77,
        "text": " Jane __________ from Cambridge University with a degree in Law.",
        "correct": "a",
        "answers": {
            "a": " graduated ",
            "b": " passed ",
            "c": " studied ",
            "d": " qualified"
        }
    }, {    
        "id": 78,
        "text": " Hi Jenny. How’s it __________ ?",
        "correct": "c",
        "answers": {
            "a": " making ",
            "b": " getting ",
            "c": " going ",
            "d": "doing"
        }
    }, {
        "id": 79,
        "text": " I don’t smoke now, but I __________ smoke 20 a day!",
        "correct": "b",
        "answers": {
            "a": " am used to ",
            "b": " used to ",
            "c": " use to ",
            "d": "was used to"
        }
    }, {
        "id": 80,
        "text": " Paris is __________ the Eiffel Tower.",
        "correct": "a",
        "answers": {
            "a": " famous for ",
            "b": " impressed by ",
            "c": " fascinated by ",
            "d": "excited about"
        }
    }, {
        "id": 81,
        "text": " If I __________ earlier, I wouldn’t have been late for work.",
        "correct": "c",
        "answers": {
            "a": " left ",
            "b": " was leaving ",
            "c": " had left ",
            "d": "have left"
        }
    }, {
        "id": 82,
        "text": " Jack: Would you like me to help you? Sue: No it’s OK, but thanks __________ .",
        "correct": "d",
        "answers": {
            "a": " to offer ",
            "b": " the offer ",
            "c": " you offer ",
            "d": "for offering"
        }
    }, {
        "id": 83,
        "text": " The film sounded Interesting, but it __________ to be really boring.",
        "correct": "d",
        "answers": {
            "a": " worked out ",
            "b": " took off",
            "c": " came round ",
            "d": "turned out"
        }
    }, {
        "id": 84,
        "text": " This time next week I __________ on the beach on holiday!",
        "correct": "d",
        "answers": {
            "a": " will go to sit ",
            "b": " am sitting ",
            "c": " will sit",
            "d": "will be sitting"
        }
    }, {
        "id": 85,
        "text": " One argument __________ not smoking is that you save a lot of money!",
        "correct": "a",
        "answers": {
            "a": " in favour of ",
            "b": " to agree with",
            "c": "it’d be better if ",
            "d": "to make you"
        } 
    }, {
        "id": 86,
        "text": " I don’t __________ sides when my sisters have an argument.",
        "correct": "c",
        "answers": {
            "a": " listen ",
            "b": " hear ",
            "c": "take",
            "d": "do"
        }
    }, {
        "id": 87,
        "text": "I have never __________ to Scotland.",
        "correct": "c",
        "answers": {
            "a": " been going ",
            "b": " went ",
            "c": " been ",
            "d": "going"
        }
    }, {    
        "id": 88,
        "text": " I’m going to ask my bank for a __________ to redecorate the kitchen.",
        "correct": "b",
        "answers": {
            "a": " credit ",
            "b": " loan ",
            "c": " savings",
            "d": "debt"
        }
    }, {
        "id": 89,
        "text": " Andrew:I ’m sorry I’m late. David: It  __________!",
        "correct": "a",
        "answers": {
            "a": " doesn’t matter ",
            "b": " matters ",
            "c": " never mind ",
            "d": "alright"
        }
    }, {
        "id": 90,
        "text": " I was __________ tired last night that I fell asleep on the sofa.",
        "correct": "c",
        "answers": {
            "a": " very ",
            "b": " too ",
            "c": " so ",
            "d": "such"
        }  
    }, {        
        "id": 91,
        "text": " Do you fancy __________ away for the weekend?",
        "correct": "c",
        "answers": {
            "a": " to go ",
            "b": "go ",
            "c": " going",
            "d": "we go"
        }
    }, {
        "id": 92,
        "text": " How often do you have __________ ?",
        "correct": "a",
        "answers": {
            "a": " your hair cut ",
            "b": " cut your hair ",
            "c": " got your hair cut ",
            "d": "hair cut"
        }
    }, {
        "id": 93,
        "text": " What __________ me about Steve is that he’s always late!",
        "correct": "b",
        "answers": {
            "a": " bores ",
            "b": " annoys",
            "c": " hates ",
            "d": "dislikes"
        }
    }, {
        "id": 94,
        "text": " By 2030 I believe we will __________ a settlement on Mars.",
        "correct": "a",
        "answers": {
            "a": " have built ",
            "b": " have been building ",
            "c": " be built",
            "d": "been built"
        }
    }, {
        "id": 95,
        "text": " Some companies don’t __________ a profit in their first year.",
        "correct": "b",
        "answers": {
            "a": " get",
            "b": " make",
            "c": "work ",
            "d": "do"
        } 
    }, {
        "id": 96,
        "text": " I haven’t got my keys. I __________ them at home.",
        "correct": "d",
        "answers": {
            "a": " should have left ",
            "b": " must leave ",
            "c": "couldn’t leave",
            "d": "must have left"
        }
    }, {
        "id": 97,
        "text": "As soon as I __________ this book, I’ll help you clean the car.",
        "correct": "a",
        "answers": {
            "a": " have finished ",
            "b": " will have finished ",
            "c": " am going to finish ",
            "d": "will finish"
        }
    }, {    
        "id": 98,
        "text": " Andy __________ enjoyed backpacking in the foothills of the Himalayas.",
        "correct": "c",
        "answers": {
            "a": " strongly ",
            "b": " heavily ",
            "c": " thoroughly",
            "d": "firmly"
        }
    }, {
        "id": 99,
        "text": " Jack Reid won the award for best actor, __________ came as a surprise to many.",
        "correct": "d",
        "answers": {
            "a": " who ",
            "b": " that ",
            "c": " what ",
            "d": "awhichlright"
        }
    }, {
        "id": 100,
        "text": " __________ from above, Niagara Falls look even more spectacular.",
        "correct": "c",
        "answers": {
            "a": " Seeing ",
            "b": " Having seen ",
            "c": " Seen ",
            "d": "Been seeing"
        }  
    }, {        
        "id": 101,
        "text": "Although the job applicant was well qualified, the Interviewers found her __________ .",
        "correct": "b",
        "answers": {
            "a": " confident ",
            "b": " arrogant ",
            "c": " hopeful ",
            "d": "self-assured"
        }
    }, {
        "id": 102,
        "text": " The taxi managed to arrive on time, __________ the traffic was very heavy.",
        "correct": "c",
        "answers": {
            "a": " despite ",
            "b": " whereas ",
            "c": " although ",
            "d": "even"
        }
    }, {
        "id": 103,
        "text": " The minister was forced to __________ a press conference to deny the rumours.",
        "correct": "c",
        "answers": {
            "a": " make ",
            "b": " do ",
            "c": " hold ",
            "d": "take"
        }
    }, {
        "id": 104,
        "text": " Someone’s taken my mobile! I clearly remember __________ it on the table.",
        "correct": "a",
        "answers": {
            "a": " putting ",
            "b": " to put ",
            "c": " I’ve put ",
            "d": "to have put"
        }
    }, {
        "id": 105,
        "text": "Scientists are __________ research into creating energy from leaves.",
        "correct": "d",
        "answers": {
            "a": " putting up ",
            "b": " trying on ",
            "c": " taking in ",
            "d": "carrying out"
        } 
    }, {
        "id": 106,
        "text": "Plans to build the new stadium suffered a __________ when the major sponsor withdrew his support.",
        "correct": "c",
        "answers": {
            "a": " downturn ",
            "b": " breakdown",
            "c": " setback ",
            "d": "backlash"
        }     
    }, {
        "id": 107,
        "text": " Travelling by train is __________ less stressful than driving.",
        "correct": "d",
        "answers": {
            "a": " absolutely ",
            "b": " extremely ",
            "c": "totally ",
            "d": " considerably "
        } 
    }, {
        "id": 108,
        "text": " If you __________ have any further questions, please do not hesitate to contact us.",
        "correct": "c",
        "answers": {
            "a": " would ",
            "b": " could ",
            "c": " should ",
            "d": " might "
        } 
    }, {
        "id": 109,
        "text": " Quite __________ , I think a lot of this talk about climate change is exaggerated.",
        "correct": "b",
        "answers": {
            "a": " clearly ",
            "b": " frankly ",
            "c": " plainly ",
            "d": " openly"
        } 
    }, {
        "id": 110,
        "text": " I wish I __________ go out this evening. I’d rather stay in and watch a film.",
        "correct": "a",
        "answers": {
            "a": " didn’t have to ",
            "b": " haven’t to ",
            "c": " hadn’t had to ",
            "d": " haven’t had to"
        } 
    }, {
        "id": 111,
        "text": "Make sure you’ve had all the necessary injections before going into the jungle, __________ you’ll risk catching tropical diseases.",
        "correct": "b",
        "answers": {
            "a": " in case ",
            "b": " otherwise ",
            "c": " providing ",
            "d": " unless"
        } 
    }, {
        "id": 112,
        "text": " Many companies are expected __________ out of business during the recession.",
        "correct": "d",
        "answers": {
            "a": " they will go ",
            "b": "going ",
            "c": " that they go ",
            "d": " to go"
        }                                         
    }, {
        "id": 113,
        "text": " __________the summer being so hot, sales of air-conditioners rose.",
        "correct": "c",
        "answers": {
            "a": " Because",
            "b": " As a result",
            "c": "Due to",
            "d": " Consequently"
        }
    }, {
        "id": 114,
        "text": "It’s time __________ the fact that he’ll never make it as a rock musician.",
        "correct": "c",
        "answers": {
            "a": " he accepts ",
            "b": " he’ll accept ",
            "c": " he accepted ",
            "d": " he’d accept"
        }
    }, {
        "id": 115,
        "text": " The waiter __________ us the impression that he couldn’t wait to finish his shift.",
        "correct": "b",
        "answers": {
            "a": " made",
            "b": " gave ",
            "c": " had ",
            "d": " showed"
        }
    }, {
        "id": 116,
        "text": "Kim still hasn’t got __________ to starting his essay.",
        "correct": "d",
        "answers": {
            "a": " through",
            "b": " off ",
            "c": "over",
            "d": " round"
        }                                           
    }]
}