{
    "questions": [{
        "id": 1,
        "text": "Tom How are you? Steve __________ .",
        "correct": "a",
        "answers": {
            "a": "Fine, thanks",
            "b": "I'm Steve",
            "c": "Yes please",
            "d": ""
        }
    }, {
        "id": 2,
        "text": "Jane What are these? Liz __________ my business cards.",
        "correct": "a",
        "answers": {
            "a": "They're",
            "b": "This is",
            "c": "It's",
            "d": ""
        }
    }, {
        "id": 3,
        "text": "Are you married single?",
        "correct": "b",
        "answers": {
            "a": " and ",
            "b": " or ",
            "c": " but ",
            "d": ""
        }
    }, {
        "id": 4,
        "text": " What's your email ?",
        "correct": "a",
        "answers": {
            "a": " address ",
            "b": " name ",
            "c": " number ",
            "d": ""
        }
    }, {
        "id": 5,
      "text": " My sister   .",
        "correct": "a",
        "answers": {
            "a": " is ten ",
            "b": " is  ten   years ",
            "c": " has ten years. ",
            "d": ""
        }
    }, {
        "id": 6,
        "text": " This is my boyfriend. __  French.",
        "correct": "a",
        "answers": {
            "a": " He's ",
            "b": " She's ",
            "c": "It's",
            "d": ""
        }
    }, {
        "id": 7,
        "text": " I'm _ taxi-driver.",
        "correct": "c",
        "answers": {
            "a": " any ",
            "b": " an ",
            "c": " a ",
            "d": ""
        }
    }, {    
        "id": 8,
        "text": " My teacher's from Canada, and     name's Lisa.",
        "correct": "c",
        "answers": {
            "a": " your ",
            "b": " our ",
            "c": " her ",
            "d": ""
        }
    }, {
        "id": 9,
        "text": " Cambridge___  a beautiful city.",
        "correct": "c",
        "answers": {
            "a": " be ",
            "b": " are ",
            "c": " is ",
            "d": ""
        }
    }, {
        "id": 10,
        "text": " John and Tom are _    friends.",
        "correct": "b",
        "answers": {
            "a": " Peter ",
            "b": " Peter's ",
            "c": " of Peter ",
            "d": ""
        }
    }, {
        "id": 11,
        "text": " What's your __    sport?",
        "correct": "b",
        "answers": {
            "a": " important ",
            "b": " favourite ",
            "c": " beautiful ",
            "d": ""
        }
    }, {
        "id": 12,
        "text": " Jim _ got a car.",
        "correct": "a",
        "answers": {
            "a": " hasn't ",
            "b": " isn't ",
            "c": " haven't ",
            "d": ""
        }
    }, {
        "id": 13,
        "text": " excuse me. _  got the time, please?",
        "correct": "c",
        "answers": {
            "a": " You         have ",
            "b": " Are you ",
            "c": " Have you ",
            "d": ""
        }
    }, {
        "id": 14,
        "text": " Joe:  When's  our  next  lesson? Steve:      Wednesday.",
        "correct": "b",
        "answers": {
            "a": " In ",
            "b": " On ",
            "c": " At ",
            "d": ""
        }
    }, {
        "id": 15,
        "text": " I can Spanish.",
        "correct": "c",
        "answers": {
            "a": " speaking ",
            "b": " to speak ",
            "c": " speak ",
            "d": ""
        }
    }]
}